{
  "config_bands": [
    {
      "count": 1,
      "query": "asset://euro_2016",
      "rail_id": "home_rail_1",
      "rail_type": "custombanner",
      "rail_title": "Rail 1"
    },
    {
      "count": 1,
      "query": "asset://euro_2016",
      "rail_id": "home_rail_2",
      "rail_type": "custombanner",
      "rail_title": "Rail 1"
    },
    {
      "count": 1,
      "query": "asset://euro_2016",
      "rail_id": "home_rail_3",
      "rail_type": "custombanner",
      "rail_title": "Rail 3"
    }
  ],
  "config_gateways": {
    "cfg_setting_middlewareUrl": "https://api.sonyliv.com"
  },
  "config_pages": [
    {
      "bands": [
        {
          "id": "home_rail_1"
        },
        {
          "id": "home_rail_2"
        },
        {
          "id": "home_rail_3"
        }
      ],
      "id": "home",
      "title": "Home"
    },
    {
      "bands": [
        {
          "id": "home_rail_1"
        },
        {
          "id": "home_rail_2"
        },
        {
          "id": "home_rail_3"
        }
      ],
      "id": "tvshow",
      "title": "TV SHOW"
    }
  ],
  "config_nav": [
    {
      "action": "att_media://page/home",
      "id": "home",
      "has_children": true,
      "children": [
        {
          "action": "att_media://page/home",
          "id": "home"
        },
        {
          "action": "att_media://page/movie",
          "id": "movie"
        }
      ],
      "title": {
        "en_US": "Home"
      }
    },
    {
      "action": "att_media://page/tvshow",
      "id": "tvshow",
      "has_children": false,
      "title": {
        "en_US": "TV Shows"
      }
    }
  ]
}